3.880000,3.220000,3.110000,1.630000,3.700000,Cavando terra.
2.380000,3.110000,3.220000,3.130000,2.200000,Criança em uma construção
1.750000,3.220000,3.560000,3.880000,4.100000,Menino jogando terra.
1.750000,3.670000,2.670000,2.880000,4.100000,Criança e terra
3.000000,4.330000,3.560000,2.250000,3.400000,trabalho infantil
4.750000,4.220000,2.560000,2.750000,4.600000,A semente atropelada
3.380000,3.330000,2.890000,3.750000,3.800000,criança e terra
3.000000,3.440000,3.330000,2.380000,4.400000,Criança com balde de terra
3.130000,4.000000,1.890000,3.750000,3.000000,Criança pobre pegando terra
4.130000,3.220000,3.110000,3.500000,3.400000,miséria
2.250000,3.670000,2.220000,3.130000,3.200000,criança na frente de 1 barraco
4.630000,3.560000,3.440000,3.380000,3.600000,Criança e terra
4.250000,3.670000,4.670000,2.500000,3.500000,Menino na terra
4.000000,3.560000,3.330000,4.750000,3.200000,Criança na terra
4.130000,3.780000,3.780000,1.880000,3.400000,Abandono
3.000000,3.670000,4.220000,3.250000,3.700000,Criança brincando
1.750000,3.000000,3.890000,4.750000,3.000000,Menino trabalhando
2.880000,2.110000,4.560000,5.000000,4.800000,falta de educação
3.500000,3.780000,2.670000,3.630000,4.300000,Criança enche balde de terra.
4.130000,4.110000,3.330000,2.750000,3.800000,Criança trabalhando
3.380000,3.560000,2.780000,4.130000,4.000000,Tristeza
2.880000,3.440000,3.000000,2.130000,3.700000,Criança trabalhando na terra.
3.880000,4.890000,2.890000,1.750000,3.700000,Criança brincando
3.250000,3.110000,4.000000,2.880000,4.100000,O menino brincando na terra
4.000000,3.890000,3.780000,2.250000,3.900000,Criança brincando com a terra"
4.000000,4.440000,3.440000,1.500000,4.000000,Índio de 3 anos ajudando
4.130000,3.440000,2.670000,1.880000,3.600000,Brincando com terra
2.250000,3.220000,3.670000,3.250000,3.500000,Brincando com terra
4.000000,4.780000,3.560000,1.380000,3.600000,pureza de uma criança
4.750000,4.560000,4.330000,3.880000,3.900000,A criança na terra
3.250000,3.330000,4.440000,2.500000,3.500000,criança na terra
3.630000,3.560000,2.330000,4.130000,3.600000,Criança no trabalho de adulto
3.880000,3.780000,4.330000,3.000000,4.400000,trabalho infantil
2.250000,3.440000,2.220000,4.250000,3.500000,criança brincando na terra
2.250000,3.780000,3.560000,3.630000,3.700000,Brincadeira ou trabalho?
2.000000,2.670000,1.780000,3.500000,4.200000,menino jogando terra
1.750000,3.890000,3.000000,2.380000,3.700000,Menino joga terra em balde.
3.250000,3.000000,3.000000,3.250000,3.900000,Bebê carregando terra
3.250000,4.110000,3.440000,3.380000,4.300000,Precisa-se de amor
2.000000,3.110000,2.220000,1.880000,2.700000,Bebê enchendo balde com terra
4.630000,3.560000,2.670000,3.500000,2.800000,o menino e a terra
3.500000,3.440000,3.560000,4.130000,3.200000,Criança e a terra
3.380000,3.000000,3.560000,2.250000,4.000000,duro recomeço.
2.880000,3.440000,3.780000,3.130000,4.600000,Garoto despeja terra em balde
2.750000,3.780000,2.330000,3.380000,3.300000,Criança brincando com terra
2.630000,4.110000,3.560000,3.000000,3.500000,Trabalho infantil.
3.250000,3.110000,2.440000,1.630000,2.400000,Criança carregando terra
4.130000,4.220000,4.220000,1.880000,3.600000,Criança com balde de terra
4.250000,4.110000,1.560000,3.750000,3.700000,Criança trabalhando com terra.
3.130000,3.890000,3.890000,2.630000,3.600000,trabalho infantil
3.250000,3.330000,3.000000,2.630000,3.900000,Criança enche balde com terra
2.630000,3.220000,4.000000,2.130000,3.700000,Garoto jogando terra no balde
2.630000,3.330000,3.560000,2.750000,3.800000,Menino com balde de terra.
3.380000,3.670000,4.560000,3.750000,3.600000,Criança com um balde de terra
2.130000,4.440000,3.890000,2.130000,4.000000,Bebê enchendo balde com terra.
2.250000,4.440000,4.000000,2.880000,4.700000,Menino coletando terra
3.750000,4.220000,4.440000,1.380000,4.500000,Balde de terra
1.630000,4.330000,4.000000,2.500000,4.100000,garoto com balde de terra
3.880000,3.330000,3.440000,2.500000,3.800000,Criança mexendo com terra
2.880000,3.440000,2.560000,2.130000,4.100000,Criança enche balde de terra.
4.630000,4.330000,4.000000,1.750000,4.100000,Menino enchendo balde de terra
2.130000,3.560000,2.890000,2.250000,3.500000,Garoto e o balde de terra.
2.500000,4.330000,4.330000,2.250000,3.900000,Um criança enchendo um balde
2.250000,3.780000,3.000000,2.380000,4.000000,Garotinho brincando na terra.
2.880000,3.890000,3.780000,1.500000,4.000000,Criança brincando com terra.
3.500000,2.780000,3.330000,3.380000,4.100000,Criança brincando com terra
4.250000,4.000000,3.670000,3.130000,3.600000,Trabalho infantil
2.750000,3.000000,4.110000,2.630000,4.000000,Criança com balde de terra
2.130000,4.000000,1.780000,3.250000,4.300000,A criança no monte de terra
1.380000,3.560000,3.220000,1.500000,3.250000,Menino enchendo balde de terra
2.630000,3.440000,2.670000,2.250000,3.600000,Criança despejando terra.
4.380000,4.000000,3.220000,1.500000,4.500000,Uma criança mexendo com terra
3.000000,3.670000,4.780000,3.380000,3.800000,Trabalho infantil
3.130000,3.330000,3.000000,3.250000,3.200000,Menino colhendo terra
4.500000,3.220000,4.330000,4.630000,3.600000,menino brincando com a terra
3.000000,4.110000,3.330000,2.000000,4.200000,Criança trabalhando com terra
2.130000,3.000000,2.560000,3.750000,3.700000,Garoto e o monte de terra
3.750000,4.000000,4.560000,2.380000,4.400000,O menino e a terra.
3.630000,3.440000,3.110000,2.630000,3.500000,Criança jogando terra no balde
1.880000,3.110000,2.440000,3.630000,4.300000,Trabalho infantil
3.250000,3.330000,2.780000,3.130000,3.800000,Criança e balde de terra
3.750000,3.890000,3.330000,2.380000,3.900000,Criança mexendo na terra
3.750000,3.440000,2.780000,3.250000,3.900000,Criança mexendo com terra
1.750000,3.560000,2.780000,2.500000,4.300000,Menino joga terra no balde.
2.880000,3.440000,4.000000,4.630000,3.100000,Pobre criança
3.380000,4.890000,4.780000,2.130000,4.600000,Criança brincando com terra!
3.880000,4.330000,4.780000,2.250000,3.300000,Menino despejando terra.
4.880000,4.330000,3.780000,1.750000,4.000000,A criança e a terra
3.630000,3.220000,3.220000,2.380000,3.400000,Criança trabalhando
3.750000,3.670000,2.560000,3.130000,3.800000,Criança enche balde de terra
4.250000,4.220000,3.670000,2.630000,4.500000,bebê trabalhando
2.630000,3.330000,3.000000,3.750000,3.200000,Criança mexendo com terra
4.380000,3.110000,3.670000,2.750000,3.700000,Pobreza
4.380000,3.780000,3.560000,3.000000,4.000000,trabalho.
3.380000,4.440000,3.440000,3.000000,3.600000,criança na sua casa
2.250000,3.780000,2.670000,3.000000,3.400000,criança trabalhando
4.130000,3.330000,3.000000,3.880000,3.900000,Criança na aldeia indígena
3.250000,3.890000,2.670000,3.130000,3.600000,Criança junta terra em balde.
1.130000,3.330000,2.890000,4.250000,2.800000,A criança trabalhando.
3.750000,4.110000,3.330000,3.880000,4.900000,criancinha juntando terra
3.000000,2.560000,2.670000,2.880000,2.500000,Menino jogando terra no balde
2.630000,3.110000,3.890000,2.500000,3.300000,Criança brincando.
4.630000,3.440000,3.110000,4.250000,4.400000,menino trabalhando
3.630000,3.780000,2.890000,4.130000,3.300000,Criança brincando
3.750000,3.440000,3.110000,4.130000,3.700000,menino simples
3.880000,4.330000,4.000000,3.500000,3.900000,Um bebê com um balde de terra
3.250000,3.670000,2.890000,2.500000,3.400000,criança e terra
1.380000,3.670000,2.780000,2.880000,2.900000,sinal da realidade
3.630000,3.560000,2.440000,4.000000,4.100000,Criança com balde de areia.
3.880000,3.440000,3.890000,3.500000,3.700000,Criança brincando com terra.
3.630000,4.220000,3.560000,2.380000,4.000000,Onde está a escola?
2.630000,3.560000,4.220000,3.380000,3.800000,Criança trabalhando com terra.
3.880000,3.110000,3.220000,3.130000,4.100000,bebê no meio da terra
3.750000,3.890000,3.330000,3.630000,3.800000,Exploração infantil.
2.880000,4.440000,3.780000,1.630000,4.100000,Criança jogando terra no balde
1.880000,4.110000,3.110000,2.880000,2.700000,Criança brincando
3.250000,4.780000,3.330000,3.500000,2.400000,Um bebê mexendo na terra.
3.630000,3.560000,3.560000,3.630000,5.000000,Recolhendo terra
1.880000,3.000000,2.780000,3.500000,3.400000,Criança manuseando terra
3.880000,3.890000,3.330000,2.500000,4.500000,A pobreza
2.380000,3.220000,3.560000,3.630000,2.700000,Criança pondo terra no balde
2.000000,3.560000,3.000000,2.750000,3.400000,O menino e a terra.
4.000000,4.110000,3.440000,3.380000,3.400000,Uma criança e a terra.
3.250000,4.110000,3.560000,2.500000,4.500000,exploração infantil.
2.630000,3.890000,2.890000,3.380000,3.600000,Criança e casa mal construída
3.880000,3.440000,2.780000,2.500000,3.300000,Terra no balde.
3.750000,3.560000,2.330000,3.880000,4.100000,Criança brincando com terra
3.750000,3.440000,2.890000,2.130000,4.300000,menino despeja terra em balde
2.500000,4.560000,3.000000,2.380000,2.800000,Brincando com terra no barraco
2.630000,4.000000,4.110000,2.500000,4.700000,Menino com um balde de terra
3.500000,4.560000,2.670000,1.880000,3.700000,infância roubada
3.130000,3.560000,3.890000,3.750000,3.500000,brincadeira de criança
4.880000,3.890000,4.330000,3.250000,4.400000,Criança brincando com terra
2.380000,3.110000,2.670000,2.500000,3.800000,barraco
4.880000,3.780000,2.440000,3.630000,4.400000,Brincando com a terra
3.500000,2.670000,4.000000,1.880000,4.000000,Trabalho infantil
4.130000,3.670000,4.000000,3.130000,3.900000,SER CRIANÇA
3.630000,3.780000,3.670000,3.000000,4.500000,criança brincando
2.500000,3.330000,2.890000,2.750000,4.600000,Ao pó voltaremos.
2.380000,3.330000,3.670000,3.880000,3.300000,Criança com terra
3.000000,4.670000,4.000000,2.500000,3.300000,Precariedade da vida Rural
2.250000,3.780000,2.220000,1.500000,3.200000,Criança em um monte de terra
2.880000,4.560000,2.780000,2.380000,3.300000,bebê guardando terra.
3.130000,3.890000,3.440000,3.750000,3.600000,criança de rua
1.880000,4.220000,2.890000,2.250000,3.500000,Criança enchendo balde
3.130000,3.670000,2.110000,4.000000,3.700000,Menino despejando terra
3.630000,4.440000,2.220000,2.880000,4.100000,Criança pobre trabalhando
4.250000,4.000000,2.780000,2.380000,3.700000,Criança na terra
1.880000,4.560000,4.220000,3.750000,2.100000,A inocência
2.880000,3.780000,3.780000,4.000000,3.300000,O menino depositando terra
3.000000,3.440000,4.890000,4.000000,2.900000,Trabalho infantil
