3.880000,3.220000,3.110000,1.630000,3.700000,A espera
2.380000,3.110000,3.220000,3.130000,2.200000,Pessoas esperando
1.750000,3.220000,3.560000,3.880000,4.100000,Pessoas reunidas.
1.750000,3.670000,2.670000,2.880000,4.100000,Frio e espera
3.000000,4.330000,3.560000,2.250000,3.400000,Idosa terrorista
4.750000,4.220000,2.560000,2.750000,4.600000,Fila de espera
3.380000,3.330000,2.890000,3.750000,3.800000,refúgio
3.000000,3.440000,3.330000,2.380000,4.400000,Pessoas esperando
3.130000,4.000000,1.890000,3.750000,3.000000,Pessoas se protegendo
4.130000,3.220000,3.110000,3.500000,3.400000,hospital
2.250000,3.670000,2.220000,3.130000,3.200000,Pessoas aguardando em fila
4.630000,3.560000,3.440000,3.380000,3.600000,Confraternização
4.250000,3.670000,4.670000,2.500000,3.500000,reunião de família
4.000000,3.560000,3.330000,4.750000,3.200000,Todos à espera
4.130000,3.780000,3.780000,1.880000,3.400000,Frio
3.000000,3.670000,4.220000,3.250000,3.700000,família reunida
1.750000,3.000000,3.890000,4.750000,3.000000,Aguardando ônibus
2.880000,2.110000,4.560000,5.000000,4.800000,Fugindo do horror
3.500000,3.780000,2.670000,3.630000,4.300000,Velhos e crianças observam.
4.130000,4.110000,3.330000,2.750000,3.800000,Pessoas sentadas.
3.380000,3.560000,2.780000,4.130000,4.000000,Fila de Espera
2.880000,3.440000,3.000000,2.130000,3.700000,Mulheres e crianças esperando.
3.880000,4.890000,2.890000,1.750000,3.700000,Grupo de pessoas reunidas.
3.250000,3.110000,4.000000,2.880000,4.100000,A vovó está de babá
4.000000,3.890000,3.780000,2.250000,3.900000,Pessoas com frio
4.000000,4.440000,3.440000,1.500000,4.000000,Aniversário de família
4.130000,3.440000,2.670000,1.880000,3.600000,Esperando sentado
2.250000,3.220000,3.670000,3.250000,3.500000,Encontro de família
4.000000,4.780000,3.560000,1.380000,3.600000,Encontro em família
4.750000,4.560000,4.330000,3.880000,3.900000,Pessoas em ambiente pequeno
3.250000,3.330000,4.440000,2.500000,3.500000,pessoas olhando
3.630000,3.560000,2.330000,4.130000,3.600000,Pessoas no inverno
3.880000,3.780000,4.330000,3.000000,4.400000,Festa infantil
2.250000,3.440000,2.220000,4.250000,3.500000,mulher olhando a câmera
2.250000,3.780000,3.560000,3.630000,3.700000,Diversidade
2.000000,2.670000,1.780000,3.500000,4.200000,Festa em família
1.750000,3.890000,3.000000,2.380000,3.700000,Pessoas aguardando em dia frio
3.250000,3.000000,3.000000,3.250000,3.900000,Pessoas em um cômodo
3.250000,4.110000,3.440000,3.380000,4.300000,à espera do quê?
2.000000,3.110000,2.220000,1.880000,2.700000,Pessoas sentadas
4.630000,3.560000,2.670000,3.500000,2.800000,sala de espera
3.500000,3.440000,3.560000,4.130000,3.200000,Reunião
3.380000,3.000000,3.560000,2.250000,4.000000,fria fila de espera
2.880000,3.440000,3.780000,3.130000,4.600000,Pessoas esperando por algo
2.750000,3.780000,2.330000,3.380000,3.300000,Na fila
2.630000,4.110000,3.560000,3.000000,3.500000,Multidão.
3.250000,3.110000,2.440000,1.630000,2.400000,Pessoas aguardando por serviço
4.130000,4.220000,4.220000,1.880000,3.600000,Grupo de pessoas
4.250000,4.110000,1.560000,3.750000,3.700000,Grupo de pessoas esperando.
3.130000,3.890000,3.890000,2.630000,3.600000,Pessoas na festa
3.250000,3.330000,3.000000,2.630000,3.900000,Senhora e crianças no frio
2.630000,3.220000,4.000000,2.130000,3.700000,Pessoas sentadas
2.630000,3.330000,3.560000,2.750000,3.800000,Pessoas em uma sala pequena.
3.380000,3.670000,4.560000,3.750000,3.600000,Pessoas reunidas
2.130000,4.440000,3.890000,2.130000,4.000000,Idosa e crianças no frio.
2.250000,4.440000,4.000000,2.880000,4.700000,Pessoas olhando pra foto
3.750000,4.220000,4.440000,1.380000,4.500000,Sentados à parede
1.630000,4.330000,4.000000,2.500000,4.100000,pessoas no frio
3.880000,3.330000,3.440000,2.500000,3.800000,Algumas pessoas reunidas
2.880000,3.440000,2.560000,2.130000,4.100000,Uma reunião de pessoas.
4.630000,4.330000,4.000000,1.750000,4.100000,A espera de mulheres e criança
2.130000,3.560000,2.890000,2.250000,3.500000,A fila de pessoas.
2.500000,4.330000,4.330000,2.250000,3.900000,Pessoas em um quarto
2.250000,3.780000,3.000000,2.380000,4.000000,Senhora e crianças.
2.880000,3.890000,3.780000,1.500000,4.000000,Família reunida
3.500000,2.780000,3.330000,3.380000,4.100000,Espera
4.250000,4.000000,3.670000,3.130000,3.600000,A espera
2.750000,3.000000,4.110000,2.630000,4.000000,Família reunida aguardando
2.130000,4.000000,1.780000,3.250000,4.300000,Reunião em família
1.380000,3.560000,3.220000,1.500000,3.250000,Pessoas em um abrigo
2.630000,3.440000,2.670000,2.250000,3.600000,Pessoas esperam sentadas
4.380000,4.000000,3.220000,1.500000,4.500000,Pessoas sentadas
3.000000,3.670000,4.780000,3.380000,3.800000,Reunião em família
3.130000,3.330000,3.000000,3.250000,3.200000,Tempo de frio
4.500000,3.220000,4.330000,4.630000,3.600000,pessoas reunidas no cômodo
3.000000,4.110000,3.330000,2.000000,4.200000,Crianças e uma velha esperando
2.130000,3.000000,2.560000,3.750000,3.700000,Pessoas em um lugar frio
3.750000,4.000000,4.560000,2.380000,4.400000,À espera
3.630000,3.440000,3.110000,2.630000,3.500000,Família no inverno
1.880000,3.110000,2.440000,3.630000,4.300000,Encontro de família
3.250000,3.330000,2.780000,3.130000,3.800000,Fileira de pessoas sentadas
3.750000,3.890000,3.330000,2.380000,3.900000,festinha de aniversário
3.750000,3.440000,2.780000,3.250000,3.900000,Pessoas aguardando atendimento
1.750000,3.560000,2.780000,2.500000,4.300000,velha e meninos
2.880000,3.440000,4.000000,4.630000,3.100000,família reunida
3.380000,4.890000,4.780000,2.130000,4.600000,Esperando no Inverno!
3.880000,4.330000,4.780000,2.250000,3.300000,Um local frio.
4.880000,4.330000,3.780000,1.750000,4.000000,O frio e as pessoas
3.630000,3.220000,3.220000,2.380000,3.400000,Pessoas em espera
3.750000,3.670000,2.560000,3.130000,3.800000,Família reunida
4.250000,4.220000,3.670000,2.630000,4.500000,forte inverno na região
2.630000,3.330000,3.000000,3.750000,3.200000,Grupo de pessoas.
4.380000,3.110000,3.670000,2.750000,3.700000,A espera de médicos
4.380000,3.780000,3.560000,3.000000,4.000000,família
3.380000,4.440000,3.440000,3.000000,3.600000,lugar com bastante pessoas
2.250000,3.780000,2.670000,3.000000,3.400000,Esperando por algo.
4.130000,3.330000,3.000000,3.880000,3.900000,Refugiados
3.250000,3.890000,2.670000,3.130000,3.600000,Pessoas esperando.
1.130000,3.330000,2.890000,4.250000,2.800000,Família aguardando.
3.750000,4.110000,3.330000,3.880000,4.900000,Pessoa em uma sala cinza
3.000000,2.560000,2.670000,2.880000,2.500000,Pessoas esperando!
2.630000,3.110000,3.890000,2.500000,3.300000,Fila de espera.
4.630000,3.440000,3.110000,4.250000,4.400000,reunião de família
3.630000,3.780000,2.890000,4.130000,3.300000,Pessoas passando frio
3.750000,3.440000,3.110000,4.130000,3.700000,família reunida
3.880000,4.330000,4.000000,3.500000,3.900000,pessoas numa fila
3.250000,3.670000,2.890000,2.500000,3.400000,fila de espera
1.380000,3.670000,2.780000,2.880000,2.900000,reunião de família
3.630000,3.560000,2.440000,4.000000,4.100000,Pessoas em uma fila de espera.
3.880000,3.440000,3.890000,3.500000,3.700000,Grupo de pessoas a espera.
3.630000,4.220000,3.560000,2.380000,4.000000,Chega de espera.
2.630000,3.560000,4.220000,3.380000,3.800000,Pessoas aguardam atendimento.
3.880000,3.110000,3.220000,3.130000,4.100000,Festa de Família
3.750000,3.890000,3.330000,3.630000,3.800000,Espera interminável.
2.880000,4.440000,3.780000,1.630000,4.100000,Pessoas com roupas de frio
1.880000,4.110000,3.110000,2.880000,2.700000,Pessoas em espera
3.250000,4.780000,3.330000,3.500000,2.400000,A senhora branca.
3.630000,3.560000,3.560000,3.630000,5.000000,Fila de espera
1.880000,3.000000,2.780000,3.500000,3.400000,Pessoas brancas em clima frio
3.880000,3.890000,3.330000,2.500000,4.500000,Esperando no frio
2.380000,3.220000,3.560000,3.630000,2.700000,Pessoas aguardando
2.000000,3.560000,3.000000,2.750000,3.400000,A espera.
4.000000,4.110000,3.440000,3.380000,3.400000,Mulheres e crianças
3.250000,4.110000,3.560000,2.500000,4.500000,Pessoas aguardando auxílio
2.630000,3.890000,2.890000,3.380000,3.600000,Pessoas juntas com olhar sério
3.880000,3.440000,2.780000,2.500000,3.300000,Senhora surpresa.
3.750000,3.560000,2.330000,3.880000,4.100000,Uma foto inesperada
3.750000,3.440000,2.890000,2.130000,4.300000,Senhora e meninos na multidão
2.500000,4.560000,3.000000,2.380000,2.800000,A espera
2.630000,4.000000,4.110000,2.500000,4.700000,Pessoas aguardando atendimento
3.500000,4.560000,2.670000,1.880000,3.700000,a espera
3.130000,3.560000,3.890000,3.750000,3.500000,Prestem atenção
4.880000,3.890000,4.330000,3.250000,4.400000,Pessoas esperando
2.380000,3.110000,2.670000,2.500000,3.800000,imigrantes
4.880000,3.780000,2.440000,3.630000,4.400000,Agasalhados contra o frio
3.500000,2.670000,4.000000,1.880000,4.000000,Vigília
4.130000,3.670000,4.000000,3.130000,3.900000,Duas gerações
3.630000,3.780000,3.670000,3.000000,4.500000,Fila de espera
2.500000,3.330000,2.890000,2.750000,4.600000,Refugiados.
2.380000,3.330000,3.670000,3.880000,3.300000,Pessoas esperando
3.000000,4.670000,4.000000,2.500000,3.300000,Noite gelada
2.250000,3.780000,2.220000,1.500000,3.200000,Pessoas na estação
2.880000,4.560000,2.780000,2.380000,3.300000,Senhora na fila
3.130000,3.890000,3.440000,3.750000,3.600000,Refugiados
1.880000,4.220000,2.890000,2.250000,3.500000,encontro de gerações
3.130000,3.670000,2.110000,4.000000,3.700000,Grupo de pessoas sentadas
3.630000,4.440000,2.220000,2.880000,4.100000,Pessoas na fila à espera
4.250000,4.000000,2.780000,2.380000,3.700000,Uma família esperando
1.880000,4.560000,4.220000,3.750000,2.100000,As pessoas
2.880000,3.780000,3.780000,4.000000,3.300000,A mulher sentada
3.000000,3.440000,4.890000,4.000000,2.900000,Reunião em família
